Getting Started • sdwisard
…
Supply a PSID to get_analyte_summary() to view a summary of its analyte data.

# returns summary of analytes available for a water system
get_analyte_summary(psid = "110001") 
#> # A tibble: 200 x 6
#>      psid storet analyte                     start_date end_date       n
#>     <int> <chr>  <chr>                       <date>     <date>     <int>
#>  1 110001 00010  SOURCE TEMPERATURE C        2013-05-21 2019-02-21     5
#>  2 110001 00081  COLOR                       2013-01-29 2019-07-16   265
#>  3 110001 00086  ODOR THRESHOLD @ 60 C       2013-01-29 2019-07-16   263
#>  4 110001 00095  SPECIFIC CONDUCTANCE        2013-01-29 2019-07-16   270
#>  5 110001 00400  PH, FIELD                   2013-01-29 2019-07-16   268
#>  6 110001 00403  PH, LABORATORY              2014-09-15 2019-02-21     6
#>  7 110001 00410  ALKALINITY (TOTAL) AS CACO3 2013-01-29 2019-07-16   274
#>  8 110001 00440  BICARBONATE ALKALINITY      2013-01-29 2019-07-16   274
#>  9 110001 00445  CARBONATE ALKALINITY        2013-01-29 2019-07-16   274
#> 10 110001 00618  NITRATE (AS N)              2015-10-20 2019-07-16   155
#> # … with 190 more rows
…
# data.frame of psid, storet, analyte, start date, end date, n samples
psid_analyte
#> # A tibble: 592,775 x 6
#>      psid storet analyte                    start_date end_date       n
#>     <int> <chr>  <chr>                      <date>     <date>     <int>
#>  1 103039 00081  COLOR                      2017-11-22 2017-11-22     1
#>  2 103039 00086  ODOR THRESHOLD @ 60 C      2017-11-22 2017-11-22     1
#>  3 103039 00095  SPECIFIC CONDUCTANCE       2017-11-22 2017-11-22     1
#>  4 103039 00403  PH, LABORATORY             2017-11-22 2017-11-22     1
#>  5 103039 00618  NITRATE (AS N)             2017-11-22 2017-11-22     1
#>  6 103040 00618  NITRATE (AS N)             2016-07-12 2019-06-18     4
#>  7 103040 00620  NITRITE (AS N)             2017-07-11 2017-07-11     1
#>  8 103040 01032  CHROMIUM, HEXAVALENT       2015-07-15 2015-07-15     1
#>  9 103040 01501  GROSS ALPHA                2016-08-15 2016-08-15     1
#> 10 103040 01502  GROSS ALPHA COUNTING ERROR 2016-08-15 2016-08-15     1
#> # … with 592,765 more rows
…
